{
  "type": "FeatureCollection",
  "properties": { "name": "chongmingdao" },
  "features": [
    {
      "type": "Feature",
      "properties": {
        "name": "崇明岛"
      },
      "geometry": {
        "type": "MultiPolygon",
        "coordinates": [
          [
            [
              [121.15859985351561, 31.791220715008382],
              [121.19567871093751, 31.74685416292141],
              [121.23825073242186, 31.712981169438624],
              [121.25885009765625, 31.716485846385325],
              [121.29180908203125, 31.68143311662596],
              [121.5142822265625, 31.56449510799119],
              [121.59942626953124, 31.522361470421437],
              [121.64337158203124, 31.520020155192825],
              [121.72714233398438, 31.493090813268065],
              [121.81365966796874, 31.450924969071444],
              [121.83151245117186, 31.439208864183147],
              [121.904296875, 31.44389548193338],
              [121.97982788085938, 31.469667689313226],
              [122.02102661132814, 31.483722267336216],
              [122.00454711914061, 31.531726144517158],
              [121.94412231445314, 31.579705357571797],
              [121.86859130859375, 31.63467554954133],
              [121.80679321289062, 31.624151855131153],
              [121.76696777343749, 31.62999849900255],
              [121.75323486328124, 31.633506308954388],
              [121.76696777343749, 31.64636714691636],
              [121.70654296874999, 31.670914715538004],
              [121.60903930664062, 31.716485846385325],
              [121.47308349609374, 31.798224014917217],
              [121.40853881835936, 31.825065081208855],
              [121.30691528320312, 31.874059068856333],
              [121.29180908203125, 31.884554393746278],
              [121.23825073242186, 31.853064832530322],
              [121.20803833007811, 31.84373252620705],
              [121.16134643554686, 31.808727969741742],
              [121.15859985351561, 31.791220715008382]
            ]
          ]
        ]
      }
    }
  ],
  "id": "崇明岛"
}
